[Tue Apr 14 14:04:04 2020] PHP 7.4.4 Development Server (http://37.230.112.67:8999) started
[Tue Apr 14 14:04:17 2020] 178.176.219.244:62944 Accepted
[Tue Apr 14 14:04:17 2020] 178.176.219.244:62944 [200]: GET /
[Tue Apr 14 14:04:17 2020] 178.176.219.244:62944 Closing
[Tue Apr 14 14:04:17 2020] 178.176.219.244:9127 Accepted
[Tue Apr 14 14:04:17 2020] 178.176.219.244:9127 [200]: GET /assets/6b49f3e4/css/bootstrap.css
[Tue Apr 14 14:04:17 2020] 178.176.219.244:26384 Accepted
[Tue Apr 14 14:04:17 2020] 178.176.219.244:6618 Accepted
[Tue Apr 14 14:04:17 2020] 178.176.219.244:6618 [200]: GET /css/site.css
[Tue Apr 14 14:04:17 2020] 178.176.219.244:26384 [200]: GET /assets/c37622bc/jquery.js
[Tue Apr 14 14:04:17 2020] 178.176.219.244:6618 Closing
[Tue Apr 14 14:04:17 2020] 178.176.219.244:9856 Accepted
[Tue Apr 14 14:04:17 2020] 178.176.219.244:18672 Accepted
[Tue Apr 14 14:04:17 2020] 178.176.219.244:18160 Accepted
[Tue Apr 14 14:04:17 2020] 178.176.219.244:9856 [200]: GET /assets/1c29a5a5/yii.js
[Tue Apr 14 14:04:17 2020] 178.176.219.244:9856 Closing
[Tue Apr 14 14:04:17 2020] 178.176.219.244:18160 [200]: GET /assets/1c29a5a5/yii.validation.js
[Tue Apr 14 14:04:17 2020] 178.176.219.244:18160 Closing
[Tue Apr 14 14:04:17 2020] 178.176.219.244:18672 [200]: GET /assets/1c29a5a5/yii.activeForm.js
[Tue Apr 14 14:04:18 2020] 178.176.219.244:18672 Closing
[Tue Apr 14 14:04:18 2020] 178.176.219.244:51558 Accepted
[Tue Apr 14 14:04:18 2020] 178.176.219.244:51558 [200]: GET /assets/6b49f3e4/js/bootstrap.js
[Tue Apr 14 14:04:20 2020] 178.176.219.244:51558 Closing
[Tue Apr 14 14:04:20 2020] 178.176.219.244:9127 Closing
[Tue Apr 14 14:04:22 2020] 178.176.219.244:26384 Closing
[Tue Apr 14 14:04:26 2020] 178.176.219.244:27393 Accepted
[Tue Apr 14 14:04:26 2020] 178.176.219.244:3458 Accepted
[Tue Apr 14 14:04:27 2020] 178.176.219.244:3458 [500]: POST /
[Tue Apr 14 14:04:27 2020] 178.176.219.244:3458 Closing
[Tue Apr 14 14:04:34 2020] 178.176.219.244:27393 Closed without sending a request; it was probably just an unused speculative preconnection
[Tue Apr 14 14:04:34 2020] 178.176.219.244:27393 Closing
[Tue Apr 14 14:04:49 2020] 178.176.219.244:51961 Accepted
[Tue Apr 14 14:04:49 2020] 178.176.219.244:8184 Accepted
[Tue Apr 14 14:04:49 2020] 178.176.219.244:51961 [302]: POST /
[Tue Apr 14 14:04:49 2020] 178.176.219.244:51961 Closing
[Tue Apr 14 14:04:50 2020] 178.176.219.244:8184 [500]: GET /index.php
[Tue Apr 14 14:04:50 2020] 178.176.219.244:8184 Closing
[Tue Apr 14 14:04:51 2020] 178.176.219.244:34936 Accepted
[Tue Apr 14 14:04:51 2020] 178.176.219.244:34936 [200]: GET /favicon.ico
[Tue Apr 14 14:04:51 2020] 178.176.219.244:34936 Closing
[Tue Apr 14 14:11:50 2020] 178.176.219.244:36363 Accepted
[Tue Apr 14 14:11:50 2020] 178.176.219.244:11992 Accepted
[Tue Apr 14 14:11:50 2020] 178.176.219.244:36363 [200]: GET /index.php
[Tue Apr 14 14:11:50 2020] 178.176.219.244:36363 Closing
[Tue Apr 14 14:11:50 2020] 178.176.219.244:11992 [200]: GET /assets/6b49f3e4/css/bootstrap.css
[Tue Apr 14 14:11:50 2020] 178.176.219.244:63788 Accepted
[Tue Apr 14 14:11:50 2020] 178.176.219.244:39880 Accepted
[Tue Apr 14 14:11:50 2020] 178.176.219.244:63788 [200]: GET /css/site.css
[Tue Apr 14 14:11:50 2020] 178.176.219.244:16666 Accepted
[Tue Apr 14 14:11:50 2020] 178.176.219.244:63788 Closing
[Tue Apr 14 14:11:50 2020] 178.176.219.244:39880 [200]: GET /assets/c37622bc/jquery.js
[Tue Apr 14 14:11:50 2020] 178.176.219.244:28660 Accepted
[Tue Apr 14 14:11:50 2020] 178.176.219.244:16666 [200]: GET /assets/1c29a5a5/yii.js
[Tue Apr 14 14:11:50 2020] 178.176.219.244:16666 Closing
[Tue Apr 14 14:11:50 2020] 178.176.219.244:28660 [200]: GET /assets/6b49f3e4/js/bootstrap.js
[Tue Apr 14 14:11:50 2020] 178.176.219.244:28660 Closing
[Tue Apr 14 14:11:50 2020] 178.176.219.244:11992 Closing
[Tue Apr 14 14:11:51 2020] 178.176.219.244:39880 Closing
[Tue Apr 14 14:11:52 2020] 178.176.219.244:35388 Accepted
[Tue Apr 14 14:11:52 2020] 178.176.219.244:35388 [200]: GET /favicon.ico
[Tue Apr 14 14:11:52 2020] 178.176.219.244:35388 Closing
[Tue Apr 14 14:13:23 2020] 178.176.219.244:23598 Accepted
[Tue Apr 14 14:13:23 2020] 178.176.219.244:16186 Accepted
[Tue Apr 14 14:13:23 2020] 178.176.219.244:16186 [200]: GET /index.php
[Tue Apr 14 14:13:23 2020] 178.176.219.244:16186 Closing
[Tue Apr 14 14:13:23 2020] 178.176.219.244:20112 Accepted
[Tue Apr 14 14:13:23 2020] 178.176.219.244:23598 [200]: GET /assets/6b49f3e4/css/bootstrap.css
[Tue Apr 14 14:13:23 2020] 178.176.219.244:20112 [200]: GET /css/site.css
[Tue Apr 14 14:13:23 2020] 178.176.219.244:20112 Closing
[Tue Apr 14 14:13:23 2020] 178.176.219.244:45590 Accepted
[Tue Apr 14 14:13:23 2020] 178.176.219.244:51947 Accepted
[Tue Apr 14 14:13:23 2020] 178.176.219.244:39899 Accepted
[Tue Apr 14 14:13:23 2020] 178.176.219.244:45590 [200]: GET /assets/c37622bc/jquery.js
[Tue Apr 14 14:13:23 2020] 178.176.219.244:51947 [200]: GET /assets/1c29a5a5/yii.js
[Tue Apr 14 14:13:23 2020] 178.176.219.244:51947 Closing
[Tue Apr 14 14:13:23 2020] 178.176.219.244:39899 [200]: GET /assets/6b49f3e4/js/bootstrap.js
[Tue Apr 14 14:13:24 2020] 178.176.219.244:23598 Closing
[Tue Apr 14 14:13:24 2020] 178.176.219.244:39899 Closing
[Tue Apr 14 14:13:24 2020] 178.176.219.244:45590 Closing
[Tue Apr 14 14:13:25 2020] 178.176.219.244:58537 Accepted
[Tue Apr 14 14:13:25 2020] 178.176.219.244:58537 [200]: GET /favicon.ico
[Tue Apr 14 14:13:25 2020] 178.176.219.244:58537 Closing
[Tue Apr 14 14:13:27 2020] 178.176.219.244:14846 Accepted
[Tue Apr 14 14:13:27 2020] 178.176.219.244:10990 Accepted
[Tue Apr 14 14:13:27 2020] 178.176.219.244:14846 [200]: GET /index.php?r=site%2Findex&page=2&per-page=10
[Tue Apr 14 14:13:27 2020] 178.176.219.244:14846 Closing
[Tue Apr 14 14:13:27 2020] 178.176.219.244:10990 [200]: GET /assets/6b49f3e4/css/bootstrap.css
[Tue Apr 14 14:13:27 2020] 178.176.219.244:7339 Accepted
[Tue Apr 14 14:13:27 2020] 178.176.219.244:7339 [200]: GET /css/site.css
[Tue Apr 14 14:13:27 2020] 178.176.219.244:30385 Accepted
[Tue Apr 14 14:13:27 2020] 178.176.219.244:7339 Closing
[Tue Apr 14 14:13:27 2020] 178.176.219.244:30385 [200]: GET /assets/c37622bc/jquery.js
[Tue Apr 14 14:13:27 2020] 178.176.219.244:65515 Accepted
[Tue Apr 14 14:13:27 2020] 178.176.219.244:15129 Accepted
[Tue Apr 14 14:13:27 2020] 178.176.219.244:65515 [200]: GET /assets/1c29a5a5/yii.js
[Tue Apr 14 14:13:27 2020] 178.176.219.244:65515 Closing
[Tue Apr 14 14:13:27 2020] 178.176.219.244:15129 [200]: GET /assets/6b49f3e4/js/bootstrap.js
[Tue Apr 14 14:13:28 2020] 178.176.219.244:10990 Closing
[Tue Apr 14 14:13:28 2020] 178.176.219.244:15129 Closing
[Tue Apr 14 14:13:28 2020] 178.176.219.244:30385 Closing
[Tue Apr 14 14:13:30 2020] 178.176.219.244:18586 Accepted
[Tue Apr 14 14:13:30 2020] 178.176.219.244:45267 Accepted
[Tue Apr 14 14:13:30 2020] 178.176.219.244:45267 [200]: GET /index.php?r=site%2Findex&page=3&per-page=10
[Tue Apr 14 14:13:30 2020] 178.176.219.244:45267 Closing
[Tue Apr 14 14:13:30 2020] 178.176.219.244:18586 [200]: GET /assets/6b49f3e4/css/bootstrap.css
[Tue Apr 14 14:13:30 2020] 178.176.219.244:39189 Accepted
[Tue Apr 14 14:13:30 2020] 178.176.219.244:49058 Accepted
[Tue Apr 14 14:13:30 2020] 178.176.219.244:39189 [200]: GET /css/site.css
[Tue Apr 14 14:13:30 2020] 178.176.219.244:39189 Closing
[Tue Apr 14 14:13:30 2020] 178.176.219.244:63824 Accepted
[Tue Apr 14 14:13:30 2020] 178.176.219.244:49058 [200]: GET /assets/c37622bc/jquery.js
[Tue Apr 14 14:13:30 2020] 178.176.219.244:52461 Accepted
[Tue Apr 14 14:13:30 2020] 178.176.219.244:63824 [200]: GET /assets/1c29a5a5/yii.js
[Tue Apr 14 14:13:30 2020] 178.176.219.244:63824 Closing
[Tue Apr 14 14:13:30 2020] 178.176.219.244:52461 [200]: GET /assets/6b49f3e4/js/bootstrap.js
[Tue Apr 14 14:13:31 2020] 178.176.219.244:18586 Closing
[Tue Apr 14 14:13:31 2020] 178.176.219.244:52461 Closing
[Tue Apr 14 14:13:31 2020] 178.176.219.244:49058 Closing
[Tue Apr 14 14:13:34 2020] 178.176.219.244:47597 Accepted
[Tue Apr 14 14:13:34 2020] 178.176.219.244:24252 Accepted
[Tue Apr 14 14:13:34 2020] 178.176.219.244:47597 [200]: GET /index.php?r=site%2Findex&page=4&per-page=10
[Tue Apr 14 14:13:34 2020] 178.176.219.244:47597 Closing
[Tue Apr 14 14:13:34 2020] 178.176.219.244:24252 Closed without sending a request; it was probably just an unused speculative preconnection
[Tue Apr 14 14:13:34 2020] 178.176.219.244:24252 Closing
[Tue Apr 14 14:13:34 2020] 178.176.219.244:61157 Accepted
[Tue Apr 14 14:13:34 2020] 178.176.219.244:52868 Accepted
[Tue Apr 14 14:13:34 2020] 178.176.219.244:17805 Accepted
[Tue Apr 14 14:13:35 2020] 178.176.219.244:17805 [200]: GET /assets/6b49f3e4/css/bootstrap.css
[Tue Apr 14 14:13:35 2020] 178.176.219.244:24685 Accepted
[Tue Apr 14 14:13:35 2020] 178.176.219.244:61157 [200]: GET /assets/c37622bc/jquery.js
[Tue Apr 14 14:13:35 2020] 178.176.219.244:14150 Accepted
[Tue Apr 14 14:13:35 2020] 178.176.219.244:52868 [200]: GET /css/site.css
[Tue Apr 14 14:13:35 2020] 178.176.219.244:24685 [200]: GET /assets/6b49f3e4/js/bootstrap.js
[Tue Apr 14 14:13:35 2020] 178.176.219.244:14150 [200]: GET /assets/1c29a5a5/yii.js
[Tue Apr 14 14:13:35 2020] 178.176.219.244:52868 Closing
[Tue Apr 14 14:13:35 2020] 178.176.219.244:14150 Closing
[Tue Apr 14 14:13:35 2020] 178.176.219.244:24685 Closing
[Tue Apr 14 14:13:36 2020] 178.176.219.244:17805 Closing
[Tue Apr 14 14:13:37 2020] 178.176.219.244:61157 Closing
[Tue Apr 14 14:13:38 2020] 178.176.219.244:21902 Accepted
[Tue Apr 14 14:13:38 2020] 178.176.219.244:35420 Accepted
[Tue Apr 14 14:13:39 2020] 178.176.219.244:21902 [200]: GET /index.php?r=site%2Findex&page=5&per-page=10
[Tue Apr 14 14:13:39 2020] 178.176.219.244:21902 Closing
[Tue Apr 14 14:13:39 2020] 178.176.219.244:35420 [200]: GET /assets/6b49f3e4/css/bootstrap.css
[Tue Apr 14 14:13:39 2020] 178.176.219.244:8031 Accepted
[Tue Apr 14 14:13:39 2020] 178.176.219.244:13123 Accepted
[Tue Apr 14 14:13:39 2020] 178.176.219.244:38062 Accepted
[Tue Apr 14 14:13:39 2020] 178.176.219.244:8031 [200]: GET /css/site.css
[Tue Apr 14 14:13:39 2020] 178.176.219.244:8031 Closing
[Tue Apr 14 14:13:39 2020] 178.176.219.244:13123 [200]: GET /assets/c37622bc/jquery.js
[Tue Apr 14 14:13:39 2020] 178.176.219.244:53065 Accepted
[Tue Apr 14 14:13:39 2020] 178.176.219.244:38062 [200]: GET /assets/1c29a5a5/yii.js
[Tue Apr 14 14:13:39 2020] 178.176.219.244:38062 Closing
[Tue Apr 14 14:13:39 2020] 178.176.219.244:53065 [200]: GET /assets/6b49f3e4/js/bootstrap.js
[Tue Apr 14 14:13:39 2020] 178.176.219.244:53065 Closing
[Tue Apr 14 14:13:39 2020] 178.176.219.244:35420 Closing
[Tue Apr 14 14:13:40 2020] 178.176.219.244:13123 Closing
[Tue Apr 14 14:13:42 2020] 178.176.219.244:33201 Accepted
[Tue Apr 14 14:13:42 2020] 178.176.219.244:41248 Accepted
[Tue Apr 14 14:13:42 2020] 178.176.219.244:33201 [200]: GET /index.php?r=site%2Findex&page=1&per-page=10
[Tue Apr 14 14:13:42 2020] 178.176.219.244:33201 Closing
[Tue Apr 14 14:13:42 2020] 178.176.219.244:41248 [200]: GET /assets/6b49f3e4/css/bootstrap.css
[Tue Apr 14 14:13:42 2020] 178.176.219.244:8598 Accepted
[Tue Apr 14 14:13:42 2020] 178.176.219.244:8598 [200]: GET /css/site.css
[Tue Apr 14 14:13:42 2020] 178.176.219.244:27893 Accepted
[Tue Apr 14 14:13:42 2020] 178.176.219.244:8598 Closing
[Tue Apr 14 14:13:43 2020] 178.176.219.244:12519 Accepted
[Tue Apr 14 14:13:43 2020] 178.176.219.244:3043 Accepted
[Tue Apr 14 14:13:43 2020] 178.176.219.244:27893 [200]: GET /assets/c37622bc/jquery.js
[Tue Apr 14 14:13:43 2020] 178.176.219.244:12519 [200]: GET /assets/1c29a5a5/yii.js
[Tue Apr 14 14:13:43 2020] 178.176.219.244:3043 [200]: GET /assets/6b49f3e4/js/bootstrap.js
[Tue Apr 14 14:13:43 2020] 178.176.219.244:12519 Closing
[Tue Apr 14 14:13:43 2020] 178.176.219.244:3043 Closing
[Tue Apr 14 14:13:43 2020] 178.176.219.244:41248 Closing
[Tue Apr 14 14:13:43 2020] 178.176.219.244:27893 Closing
[Tue Apr 14 14:24:20 2020] 178.176.219.244:42689 Accepted
[Tue Apr 14 14:24:20 2020] 178.176.219.244:43008 Accepted
[Tue Apr 14 14:24:20 2020] 178.176.219.244:42689 [200]: GET /index.php?r=site%2Findex&page=1&per-page=10
[Tue Apr 14 14:24:20 2020] 178.176.219.244:42689 Closing
[Tue Apr 14 14:24:20 2020] 178.176.219.244:43008 Closed without sending a request; it was probably just an unused speculative preconnection
[Tue Apr 14 14:24:20 2020] 178.176.219.244:43008 Closing
[Tue Apr 14 14:24:21 2020] 178.176.219.244:5069 Accepted
[Tue Apr 14 14:24:21 2020] 178.176.219.244:57564 Accepted
[Tue Apr 14 14:24:21 2020] 178.176.219.244:45771 Accepted
[Tue Apr 14 14:24:21 2020] 178.176.219.244:57564 [200]: GET /assets/6b49f3e4/css/bootstrap.css
[Tue Apr 14 14:24:21 2020] 178.176.219.244:21381 Accepted
[Tue Apr 14 14:24:21 2020] 178.176.219.244:28759 Accepted
[Tue Apr 14 14:24:21 2020] 178.176.219.244:5069 [200]: GET /css/site.css
[Tue Apr 14 14:24:21 2020] 178.176.219.244:45771 [200]: GET /assets/c37622bc/jquery.js
[Tue Apr 14 14:24:21 2020] 178.176.219.244:5069 Closing
[Tue Apr 14 14:24:21 2020] 178.176.219.244:28759 [200]: GET /assets/1c29a5a5/yii.js
[Tue Apr 14 14:24:21 2020] 178.176.219.244:28759 Closing
[Tue Apr 14 14:24:21 2020] 178.176.219.244:21381 [200]: GET /assets/6b49f3e4/js/bootstrap.js
[Tue Apr 14 14:24:21 2020] 178.176.219.244:21381 Closing
[Tue Apr 14 14:24:22 2020] 178.176.219.244:57564 Closing
[Tue Apr 14 14:24:23 2020] 178.176.219.244:45771 Closing
[Tue Apr 14 14:24:23 2020] 178.176.219.244:24378 Accepted
[Tue Apr 14 14:24:23 2020] 178.176.219.244:24378 [200]: GET /favicon.ico
[Tue Apr 14 14:24:23 2020] 178.176.219.244:24378 Closing
[Tue Apr 14 14:24:51 2020] 178.176.219.244:15537 Accepted
[Tue Apr 14 14:24:51 2020] 178.176.219.244:23310 Accepted
[Tue Apr 14 14:24:51 2020] 178.176.219.244:15537 [500]: GET /index.php?r=site%2Findex&page=1&per-page=10
[Tue Apr 14 14:24:51 2020] 178.176.219.244:15537 Closing
[Tue Apr 14 14:24:52 2020] 178.176.219.244:23310 [200]: GET /favicon.ico
[Tue Apr 14 14:24:52 2020] 178.176.219.244:23310 Closing
[Tue Apr 14 14:25:05 2020] 178.176.219.244:60930 Accepted
[Tue Apr 14 14:25:05 2020] 178.176.219.244:41917 Accepted
[Tue Apr 14 14:25:05 2020] 178.176.219.244:60930 [500]: GET /index.php?r=site%2Findex&page=1&per-page=10
[Tue Apr 14 14:25:05 2020] 178.176.219.244:60930 Closing
[Tue Apr 14 14:25:06 2020] 178.176.219.244:41917 [200]: GET /favicon.ico
[Tue Apr 14 14:25:06 2020] 178.176.219.244:41917 Closing
[Tue Apr 14 14:25:16 2020] 178.176.219.244:47851 Accepted
[Tue Apr 14 14:25:16 2020] 178.176.219.244:8990 Accepted
[Tue Apr 14 14:25:16 2020] 178.176.219.244:47851 [200]: GET /index.php?r=site%2Findex&page=1&per-page=10
[Tue Apr 14 14:25:16 2020] 178.176.219.244:47851 Closing
[Tue Apr 14 14:25:16 2020] 178.176.219.244:8990 [200]: GET /assets/6b49f3e4/css/bootstrap.css
[Tue Apr 14 14:25:16 2020] 178.176.219.244:11584 Accepted
[Tue Apr 14 14:25:16 2020] 178.176.219.244:12171 Accepted
[Tue Apr 14 14:25:16 2020] 178.176.219.244:9591 Accepted
[Tue Apr 14 14:25:16 2020] 178.176.219.244:20752 Accepted
[Tue Apr 14 14:25:16 2020] 178.176.219.244:9591 [200]: GET /css/site.css
[Tue Apr 14 14:25:16 2020] 178.176.219.244:9591 Closing
[Tue Apr 14 14:25:16 2020] 178.176.219.244:12171 [200]: GET /assets/c37622bc/jquery.js
[Tue Apr 14 14:25:16 2020] 178.176.219.244:11584 [200]: GET /assets/1c29a5a5/yii.js
[Tue Apr 14 14:25:16 2020] 178.176.219.244:11584 Closing
[Tue Apr 14 14:25:16 2020] 178.176.219.244:20752 [200]: GET /assets/6b49f3e4/js/bootstrap.js
[Tue Apr 14 14:25:18 2020] 178.176.219.244:20752 Closing
[Tue Apr 14 14:25:20 2020] 178.176.219.244:8990 Closing
[Tue Apr 14 14:25:25 2020] 178.176.219.244:12171 Closing
[Tue Apr 14 14:25:26 2020] 178.176.219.244:24859 Accepted
[Tue Apr 14 14:25:26 2020] 178.176.219.244:24859 [200]: GET /favicon.ico
[Tue Apr 14 14:25:26 2020] 178.176.219.244:24859 Closing
[Tue Apr 14 14:28:07 2020] 178.176.219.244:25134 Accepted
[Tue Apr 14 14:28:07 2020] 178.176.219.244:7140 Accepted
[Tue Apr 14 14:28:07 2020] 178.176.219.244:7140 [200]: GET /index.php?r=site%2Findex&page=1&per-page=10
[Tue Apr 14 14:28:07 2020] 178.176.219.244:7140 Closing
[Tue Apr 14 14:28:07 2020] 178.176.219.244:25134 [200]: GET /assets/6b49f3e4/css/bootstrap.css
[Tue Apr 14 14:28:07 2020] 178.176.219.244:40202 Accepted
[Tue Apr 14 14:28:07 2020] 178.176.219.244:40202 [200]: GET /css/site.css
[Tue Apr 14 14:28:07 2020] 178.176.219.244:40202 Closing
[Tue Apr 14 14:28:08 2020] 178.176.219.244:2631 Accepted
[Tue Apr 14 14:28:08 2020] 178.176.219.244:49090 Accepted
[Tue Apr 14 14:28:08 2020] 178.176.219.244:38944 Accepted
[Tue Apr 14 14:28:08 2020] 178.176.219.244:49090 [200]: GET /assets/c37622bc/jquery.js
[Tue Apr 14 14:28:08 2020] 178.176.219.244:2631 [200]: GET /assets/1c29a5a5/yii.js
[Tue Apr 14 14:28:08 2020] 178.176.219.244:2631 Closing
[Tue Apr 14 14:28:08 2020] 178.176.219.244:38944 [200]: GET /assets/6b49f3e4/js/bootstrap.js
[Tue Apr 14 14:28:08 2020] 178.176.219.244:38944 Closing
[Tue Apr 14 14:28:09 2020] 178.176.219.244:25134 Closing
[Tue Apr 14 14:28:09 2020] 178.176.219.244:49090 Closing
[Tue Apr 14 14:28:10 2020] 178.176.219.244:49011 Accepted
[Tue Apr 14 14:28:10 2020] 178.176.219.244:49011 [200]: GET /favicon.ico
[Tue Apr 14 14:28:10 2020] 178.176.219.244:49011 Closing
[Tue Apr 14 14:28:59 2020] 178.176.219.244:8996 Accepted
[Tue Apr 14 14:28:59 2020] 178.176.219.244:43723 Accepted
[Tue Apr 14 14:28:59 2020] 178.176.219.244:8996 [200]: GET /
[Tue Apr 14 14:28:59 2020] 178.176.219.244:8996 Closing
[Tue Apr 14 14:29:00 2020] 178.176.219.244:43723 [200]: GET /assets/6b49f3e4/css/bootstrap.css
[Tue Apr 14 14:29:00 2020] 178.176.219.244:2857 Accepted
[Tue Apr 14 14:29:00 2020] 178.176.219.244:33626 Accepted
[Tue Apr 14 14:29:00 2020] 178.176.219.244:9966 Accepted
[Tue Apr 14 14:29:00 2020] 178.176.219.244:33626 [200]: GET /assets/c37622bc/jquery.js
[Tue Apr 14 14:29:00 2020] 178.176.219.244:54686 Accepted
[Tue Apr 14 14:29:00 2020] 178.176.219.244:9966 [200]: GET /css/site.css
[Tue Apr 14 14:29:00 2020] 178.176.219.244:2857 [200]: GET /assets/1c29a5a5/yii.js
[Tue Apr 14 14:29:00 2020] 178.176.219.244:9966 Closing
[Tue Apr 14 14:29:00 2020] 178.176.219.244:2857 Closing
[Tue Apr 14 14:29:00 2020] 178.176.219.244:54686 [200]: GET /assets/6b49f3e4/js/bootstrap.js
[Tue Apr 14 14:29:00 2020] 178.176.219.244:54686 Closing
[Tue Apr 14 14:29:00 2020] 178.176.219.244:43723 Closing
[Tue Apr 14 14:29:01 2020] 178.176.219.244:33626 Closing
[Tue Apr 14 14:29:46 2020] 178.176.219.244:14991 Accepted
[Tue Apr 14 14:29:46 2020] 178.176.219.244:14991 [200]: GET /
[Tue Apr 14 14:29:46 2020] 178.176.219.244:14991 Closing
[Tue Apr 14 14:29:46 2020] 178.176.219.244:12422 Accepted
[Tue Apr 14 14:29:47 2020] 178.176.219.244:12422 [200]: GET /assets/6b49f3e4/css/bootstrap.css
[Tue Apr 14 14:29:47 2020] 178.176.219.244:25288 Accepted
[Tue Apr 14 14:29:47 2020] 178.176.219.244:25288 [200]: GET /css/site.css
[Tue Apr 14 14:29:47 2020] 178.176.219.244:25288 Closing
[Tue Apr 14 14:29:47 2020] 178.176.219.244:8897 Accepted
[Tue Apr 14 14:29:47 2020] 178.176.219.244:24940 Accepted
[Tue Apr 14 14:29:47 2020] 178.176.219.244:19667 Accepted
[Tue Apr 14 14:29:47 2020] 178.176.219.244:8897 [200]: GET /assets/c37622bc/jquery.js
[Tue Apr 14 14:29:47 2020] 178.176.219.244:19667 [200]: GET /assets/1c29a5a5/yii.js
[Tue Apr 14 14:29:47 2020] 178.176.219.244:19667 Closing
[Tue Apr 14 14:29:47 2020] 178.176.219.244:24940 [200]: GET /assets/6b49f3e4/js/bootstrap.js
[Tue Apr 14 14:29:47 2020] 178.176.219.244:24940 Closing
[Tue Apr 14 14:29:47 2020] 178.176.219.244:12422 Closing
[Tue Apr 14 14:29:47 2020] 178.176.219.244:8897 Closing
[Tue Apr 14 14:29:48 2020] 178.176.219.244:52330 Accepted
[Tue Apr 14 14:29:48 2020] 178.176.219.244:52330 [200]: GET /favicon.ico
[Tue Apr 14 14:29:48 2020] 178.176.219.244:52330 Closing
[Tue Apr 14 14:30:24 2020] 178.176.219.244:31966 Accepted
[Tue Apr 14 14:30:24 2020] 178.176.219.244:65310 Accepted
[Tue Apr 14 14:30:24 2020] 178.176.219.244:65310 [200]: GET /
[Tue Apr 14 14:30:24 2020] 178.176.219.244:65310 Closing
[Tue Apr 14 14:30:25 2020] 178.176.219.244:31966 [200]: GET /assets/6b49f3e4/css/bootstrap.css
[Tue Apr 14 14:30:25 2020] 178.176.219.244:21208 Accepted
[Tue Apr 14 14:30:25 2020] 178.176.219.244:4221 Accepted
[Tue Apr 14 14:30:25 2020] 178.176.219.244:36777 Accepted
[Tue Apr 14 14:30:25 2020] 178.176.219.244:43772 Accepted
[Tue Apr 14 14:30:25 2020] 178.176.219.244:21208 [200]: GET /css/site.css
[Tue Apr 14 14:30:25 2020] 178.176.219.244:21208 Closing
[Tue Apr 14 14:30:25 2020] 178.176.219.244:43772 [200]: GET /assets/c37622bc/jquery.js
[Tue Apr 14 14:30:25 2020] 178.176.219.244:4221 [200]: GET /assets/1c29a5a5/yii.js
[Tue Apr 14 14:30:25 2020] 178.176.219.244:4221 Closing
[Tue Apr 14 14:30:25 2020] 178.176.219.244:36777 [200]: GET /assets/6b49f3e4/js/bootstrap.js
[Tue Apr 14 14:30:25 2020] 178.176.219.244:36777 Closing
[Tue Apr 14 14:30:25 2020] 178.176.219.244:31966 Closing
[Tue Apr 14 14:30:25 2020] 178.176.219.244:43772 Closing
[Tue Apr 14 14:30:26 2020] 178.176.219.244:33502 Accepted
[Tue Apr 14 14:30:26 2020] 178.176.219.244:33502 [200]: GET /favicon.ico
[Tue Apr 14 14:30:26 2020] 178.176.219.244:33502 Closing
[Tue Apr 14 14:30:30 2020] 178.176.219.244:6448 Accepted
[Tue Apr 14 14:30:30 2020] 178.176.219.244:10921 Accepted
[Tue Apr 14 14:30:30 2020] 178.176.219.244:6448 [200]: GET /?valueID=&from=2020-04-15&to=
[Tue Apr 14 14:30:30 2020] 178.176.219.244:6448 Closing
[Tue Apr 14 14:30:30 2020] 178.176.219.244:10921 [200]: GET /assets/6b49f3e4/css/bootstrap.css
[Tue Apr 14 14:30:30 2020] 178.176.219.244:9013 Accepted
[Tue Apr 14 14:30:30 2020] 178.176.219.244:45717 Accepted
[Tue Apr 14 14:30:30 2020] 178.176.219.244:29925 Accepted
[Tue Apr 14 14:30:30 2020] 178.176.219.244:54771 Accepted
[Tue Apr 14 14:30:30 2020] 178.176.219.244:9013 [200]: GET /css/site.css
[Tue Apr 14 14:30:30 2020] 178.176.219.244:9013 Closing
[Tue Apr 14 14:30:30 2020] 178.176.219.244:29925 [200]: GET /assets/6b49f3e4/js/bootstrap.js
[Tue Apr 14 14:30:30 2020] 178.176.219.244:54771 [200]: GET /assets/1c29a5a5/yii.js
[Tue Apr 14 14:30:30 2020] 178.176.219.244:45717 [200]: GET /assets/c37622bc/jquery.js
[Tue Apr 14 14:30:30 2020] 178.176.219.244:54771 Closing
[Tue Apr 14 14:30:30 2020] 178.176.219.244:10921 Closing
[Tue Apr 14 14:30:30 2020] 178.176.219.244:29925 Closing
[Tue Apr 14 14:30:31 2020] 178.176.219.244:45717 Closing
[Tue Apr 14 14:31:03 2020] 178.176.219.244:9905 Accepted
[Tue Apr 14 14:31:03 2020] 178.176.219.244:47273 Accepted
[Tue Apr 14 14:31:03 2020] 178.176.219.244:47273 [200]: GET /?valueID=&from=2020-04-15&to=
[Tue Apr 14 14:31:03 2020] 178.176.219.244:47273 Closing
[Tue Apr 14 14:31:04 2020] 178.176.219.244:9905 [200]: GET /favicon.ico
[Tue Apr 14 14:31:04 2020] 178.176.219.244:9905 Closing
[Tue Apr 14 14:31:16 2020] 178.176.219.244:44069 Accepted
[Tue Apr 14 14:31:16 2020] 178.176.219.244:2252 Accepted
[Tue Apr 14 14:31:16 2020] 178.176.219.244:44069 [200]: GET /?valueID=&from=2020-04-15&to=
[Tue Apr 14 14:31:16 2020] 178.176.219.244:44069 Closing
[Tue Apr 14 14:31:17 2020] 178.176.219.244:2252 [200]: GET /favicon.ico
[Tue Apr 14 14:31:17 2020] 178.176.219.244:2252 Closing
[Tue Apr 14 14:31:50 2020] 178.176.219.244:58695 Accepted
[Tue Apr 14 14:31:50 2020] 178.176.219.244:52921 Accepted
[Tue Apr 14 14:31:50 2020] 178.176.219.244:58695 [200]: GET /?valueID=&from=2020-04-15&to=
[Tue Apr 14 14:31:50 2020] 178.176.219.244:58695 Closing
[Tue Apr 14 14:31:51 2020] 178.176.219.244:52921 Closed without sending a request; it was probably just an unused speculative preconnection
[Tue Apr 14 14:31:51 2020] 178.176.219.244:52921 Closing
[Tue Apr 14 14:31:51 2020] 178.176.219.244:1040 Accepted
[Tue Apr 14 14:31:51 2020] 178.176.219.244:1040 [200]: GET /favicon.ico
[Tue Apr 14 14:31:51 2020] 178.176.219.244:1040 Closing
[Tue Apr 14 14:32:07 2020] 178.176.219.244:62996 Accepted
[Tue Apr 14 14:32:07 2020] 178.176.219.244:41498 Accepted
[Tue Apr 14 14:32:07 2020] 178.176.219.244:41498 [200]: GET /?valueID=&from=2020-04-15&to=
[Tue Apr 14 14:32:07 2020] 178.176.219.244:41498 Closing
[Tue Apr 14 14:32:07 2020] 178.176.219.244:62996 [200]: GET /assets/6b49f3e4/css/bootstrap.css
[Tue Apr 14 14:32:07 2020] 178.176.219.244:19424 Accepted
[Tue Apr 14 14:32:07 2020] 178.176.219.244:19424 [200]: GET /css/site.css
[Tue Apr 14 14:32:07 2020] 178.176.219.244:29258 Accepted
[Tue Apr 14 14:32:07 2020] 178.176.219.244:19424 Closing
[Tue Apr 14 14:32:07 2020] 178.176.219.244:28798 Accepted
[Tue Apr 14 14:32:07 2020] 178.176.219.244:29258 [200]: GET /assets/c37622bc/jquery.js
[Tue Apr 14 14:32:07 2020] 178.176.219.244:24869 Accepted
[Tue Apr 14 14:32:07 2020] 178.176.219.244:28798 [200]: GET /assets/1c29a5a5/yii.js
[Tue Apr 14 14:32:07 2020] 178.176.219.244:24869 [200]: GET /assets/6b49f3e4/js/bootstrap.js
[Tue Apr 14 14:32:07 2020] 178.176.219.244:28798 Closing
[Tue Apr 14 14:32:08 2020] 178.176.219.244:62996 Closing
[Tue Apr 14 14:32:08 2020] 178.176.219.244:24869 Closing
[Tue Apr 14 14:32:08 2020] 178.176.219.244:29258 Closing
[Tue Apr 14 14:32:09 2020] 178.176.219.244:38780 Accepted
[Tue Apr 14 14:32:09 2020] 178.176.219.244:38780 [200]: GET /favicon.ico
[Tue Apr 14 14:32:09 2020] 178.176.219.244:38780 Closing
[Tue Apr 14 14:32:14 2020] 178.176.219.244:42250 Accepted
[Tue Apr 14 14:32:14 2020] 178.176.219.244:17611 Accepted
[Tue Apr 14 14:32:14 2020] 178.176.219.244:42250 [200]: GET /?valueID=&from=2020-04-15&to=
[Tue Apr 14 14:32:14 2020] 178.176.219.244:42250 Closing
[Tue Apr 14 14:32:15 2020] 178.176.219.244:17611 [200]: GET /favicon.ico
[Tue Apr 14 14:32:15 2020] 178.176.219.244:17611 Closing
[Tue Apr 14 14:32:19 2020] 178.176.219.244:31231 Accepted
[Tue Apr 14 14:32:19 2020] 178.176.219.244:52163 Accepted
[Tue Apr 14 14:32:19 2020] 178.176.219.244:31231 [200]: GET /?valueID=&from=2020-04-15&to=
[Tue Apr 14 14:32:19 2020] 178.176.219.244:31231 Closing
[Tue Apr 14 14:32:21 2020] 178.176.219.244:52163 Closed without sending a request; it was probably just an unused speculative preconnection
[Tue Apr 14 14:32:21 2020] 178.176.219.244:52163 Closing
[Tue Apr 14 14:32:43 2020] 178.176.219.244:63295 Accepted
[Tue Apr 14 14:32:43 2020] 178.176.219.244:43987 Accepted
[Tue Apr 14 14:32:44 2020] 178.176.219.244:63295 [200]: GET /?valueID=&from=2020-04-15&to=
[Tue Apr 14 14:32:44 2020] 178.176.219.244:63295 Closing
[Tue Apr 14 14:32:44 2020] 178.176.219.244:43987 [200]: GET /assets/6b49f3e4/css/bootstrap.css
[Tue Apr 14 14:32:44 2020] 178.176.219.244:63562 Accepted
[Tue Apr 14 14:32:44 2020] 178.176.219.244:4920 Accepted
[Tue Apr 14 14:32:44 2020] 178.176.219.244:9099 Accepted
[Tue Apr 14 14:32:44 2020] 178.176.219.244:20155 Accepted
[Tue Apr 14 14:32:44 2020] 178.176.219.244:9099 [200]: GET /assets/c37622bc/jquery.js
[Tue Apr 14 14:32:44 2020] 178.176.219.244:20155 [200]: GET /css/site.css
[Tue Apr 14 14:32:44 2020] 178.176.219.244:63562 [200]: GET /assets/6b49f3e4/js/bootstrap.js
[Tue Apr 14 14:32:44 2020] 178.176.219.244:4920 [200]: GET /assets/1c29a5a5/yii.js
[Tue Apr 14 14:32:44 2020] 178.176.219.244:20155 Closing
[Tue Apr 14 14:32:44 2020] 178.176.219.244:4920 Closing
[Tue Apr 14 14:32:44 2020] 178.176.219.244:43987 Closing
[Tue Apr 14 14:32:44 2020] 178.176.219.244:63562 Closing
[Tue Apr 14 14:32:45 2020] 178.176.219.244:9099 Closing
[Tue Apr 14 14:32:45 2020] 178.176.219.244:49743 Accepted
[Tue Apr 14 14:32:45 2020] 178.176.219.244:49743 [200]: GET /favicon.ico
[Tue Apr 14 14:32:45 2020] 178.176.219.244:49743 Closing
[Tue Apr 14 14:32:52 2020] 178.176.219.244:54578 Accepted
[Tue Apr 14 14:32:52 2020] 178.176.219.244:59238 Accepted
[Tue Apr 14 14:32:52 2020] 178.176.219.244:54578 [200]: GET /?valueID=&from=2020-04-06&to=
[Tue Apr 14 14:32:52 2020] 178.176.219.244:54578 Closing
[Tue Apr 14 14:32:52 2020] 178.176.219.244:59238 [200]: GET /assets/6b49f3e4/css/bootstrap.css
[Tue Apr 14 14:32:52 2020] 178.176.219.244:16110 Accepted
[Tue Apr 14 14:32:52 2020] 178.176.219.244:16110 [200]: GET /css/site.css
[Tue Apr 14 14:32:52 2020] 178.176.219.244:16110 Closing
[Tue Apr 14 14:32:52 2020] 178.176.219.244:64307 Accepted
[Tue Apr 14 14:32:52 2020] 178.176.219.244:46148 Accepted
[Tue Apr 14 14:32:52 2020] 178.176.219.244:60623 Accepted
[Tue Apr 14 14:32:52 2020] 178.176.219.244:46148 [200]: GET /assets/c37622bc/jquery.js
[Tue Apr 14 14:32:52 2020] 178.176.219.244:64307 [200]: GET /assets/1c29a5a5/yii.js
[Tue Apr 14 14:32:52 2020] 178.176.219.244:64307 Closing
[Tue Apr 14 14:32:52 2020] 178.176.219.244:60623 [200]: GET /assets/6b49f3e4/js/bootstrap.js
[Tue Apr 14 14:32:52 2020] 178.176.219.244:60623 Closing
[Tue Apr 14 14:32:52 2020] 178.176.219.244:59238 Closing
[Tue Apr 14 14:32:53 2020] 178.176.219.244:46148 Closing
[Tue Apr 14 14:33:10 2020] 178.176.219.244:50740 Accepted
[Tue Apr 14 14:33:10 2020] 178.176.219.244:35395 Accepted
[Tue Apr 14 14:33:10 2020] 178.176.219.244:50740 [200]: GET /?valueID=&from=2020-04-06&to=2020-04-10
[Tue Apr 14 14:33:10 2020] 178.176.219.244:50740 Closing
[Tue Apr 14 14:33:10 2020] 178.176.219.244:5765 Accepted
[Tue Apr 14 14:33:10 2020] 178.176.219.244:5765 [200]: GET /assets/6b49f3e4/css/bootstrap.css
[Tue Apr 14 14:33:10 2020] 178.176.219.244:35395 [200]: GET /css/site.css
[Tue Apr 14 14:33:10 2020] 178.176.219.244:35395 Closing
[Tue Apr 14 14:33:10 2020] 178.176.219.244:58272 Accepted
[Tue Apr 14 14:33:10 2020] 178.176.219.244:49600 Accepted
[Tue Apr 14 14:33:10 2020] 178.176.219.244:57713 Accepted
[Tue Apr 14 14:33:10 2020] 178.176.219.244:58272 [200]: GET /assets/c37622bc/jquery.js
[Tue Apr 14 14:33:10 2020] 178.176.219.244:57713 [200]: GET /assets/1c29a5a5/yii.js
[Tue Apr 14 14:33:10 2020] 178.176.219.244:57713 Closing
[Tue Apr 14 14:33:10 2020] 178.176.219.244:49600 [200]: GET /assets/6b49f3e4/js/bootstrap.js
[Tue Apr 14 14:33:11 2020] 178.176.219.244:5765 Closing
[Tue Apr 14 14:33:11 2020] 178.176.219.244:49600 Closing
[Tue Apr 14 14:33:11 2020] 178.176.219.244:58272 Closing
[Tue Apr 14 14:33:21 2020] 178.176.219.244:33133 Accepted
[Tue Apr 14 14:33:21 2020] 178.176.219.244:33133 [200]: GET /?valueID=R01235&from=2020-04-06&to=2020-04-10
[Tue Apr 14 14:33:21 2020] 178.176.219.244:33133 Closing
[Tue Apr 14 14:33:21 2020] 178.176.219.244:24057 Accepted
[Tue Apr 14 14:33:21 2020] 178.176.219.244:24057 [200]: GET /assets/6b49f3e4/css/bootstrap.css
[Tue Apr 14 14:33:21 2020] 178.176.219.244:55581 Accepted
[Tue Apr 14 14:33:21 2020] 178.176.219.244:34754 Accepted
[Tue Apr 14 14:33:21 2020] 178.176.219.244:22080 Accepted
[Tue Apr 14 14:33:21 2020] 178.176.219.244:34754 [200]: GET /assets/1c29a5a5/yii.js
[Tue Apr 14 14:33:21 2020] 178.176.219.244:42726 Accepted
[Tue Apr 14 14:33:21 2020] 178.176.219.244:55581 [200]: GET /css/site.css
[Tue Apr 14 14:33:21 2020] 178.176.219.244:42726 [200]: GET /assets/6b49f3e4/js/bootstrap.js
[Tue Apr 14 14:33:21 2020] 178.176.219.244:34754 Closing
[Tue Apr 14 14:33:21 2020] 178.176.219.244:22080 [200]: GET /assets/c37622bc/jquery.js
[Tue Apr 14 14:33:21 2020] 178.176.219.244:55581 Closing
[Tue Apr 14 14:33:21 2020] 178.176.219.244:24057 Closing
[Tue Apr 14 14:33:21 2020] 178.176.219.244:42726 Closing
[Tue Apr 14 14:33:21 2020] 178.176.219.244:22080 Closing
[Tue Apr 14 14:36:06 2020] 178.176.219.244:18456 Accepted
[Tue Apr 14 14:36:06 2020] 178.176.219.244:38178 Accepted
[Tue Apr 14 14:36:06 2020] 178.176.219.244:38178 [500]: GET /site/rate/?valueID=R01235&from=2020-04-06&to=2020-04-10
[Tue Apr 14 14:36:06 2020] 178.176.219.244:38178 Closing
[Tue Apr 14 14:36:11 2020] 178.176.219.244:18456 Closed without sending a request; it was probably just an unused speculative preconnection
[Tue Apr 14 14:36:11 2020] 178.176.219.244:18456 Closing
[Tue Apr 14 14:36:12 2020] 178.176.219.244:19534 Accepted
[Tue Apr 14 14:36:12 2020] 178.176.219.244:16246 Accepted
[Tue Apr 14 14:36:13 2020] 178.176.219.244:19534 [500]: GET /site/rate?valueID=R01235&from=2020-04-06&to=2020-04-10
[Tue Apr 14 14:36:13 2020] 178.176.219.244:19534 Closing
[Tue Apr 14 14:36:21 2020] 178.176.219.244:16246 Closed without sending a request; it was probably just an unused speculative preconnection
[Tue Apr 14 14:36:21 2020] 178.176.219.244:16246 Closing
[Tue Apr 14 14:36:55 2020] 178.176.219.244:29484 Accepted
[Tue Apr 14 14:36:55 2020] 178.176.219.244:36748 Accepted
[Tue Apr 14 14:36:55 2020] 178.176.219.244:29484 [200]: GET /site/rate?valueID=R01235&from=2020-04-06&to=2020-04-10
[Tue Apr 14 14:36:55 2020] 178.176.219.244:29484 Closing
[Tue Apr 14 14:36:56 2020] 178.176.219.244:36748 [200]: GET /favicon.ico
[Tue Apr 14 14:36:56 2020] 178.176.219.244:36748 Closing
[Tue Apr 14 14:37:26 2020] 178.176.219.244:26488 Accepted
[Tue Apr 14 14:37:26 2020] 178.176.219.244:7948 Accepted
[Tue Apr 14 14:37:26 2020] 178.176.219.244:7948 [200]: GET /site/rate?valueID=R01235&from=2020-04-06&to=2020-04-10
[Tue Apr 14 14:37:26 2020] 178.176.219.244:7948 Closing
[Tue Apr 14 14:37:27 2020] 178.176.219.244:26488 [200]: GET /favicon.ico
[Tue Apr 14 14:37:27 2020] 178.176.219.244:26488 Closing
[Tue Apr 14 14:38:43 2020] 178.176.219.244:35581 Accepted
[Tue Apr 14 14:38:43 2020] 178.176.219.244:48615 Accepted
[Tue Apr 14 14:38:43 2020] 178.176.219.244:35581 [200]: GET /site/rate?valueID=R01235&from=2020-04-06&to=2020-04-10
[Tue Apr 14 14:38:43 2020] 178.176.219.244:35581 Closing
[Tue Apr 14 14:38:43 2020] 178.176.219.244:48615 [200]: GET /favicon.ico
[Tue Apr 14 14:38:43 2020] 178.176.219.244:48615 Closing
[Tue Apr 14 14:39:29 2020] 178.176.219.244:36201 Accepted
[Tue Apr 14 14:39:29 2020] 178.176.219.244:4051 Accepted
[Tue Apr 14 14:39:29 2020] 178.176.219.244:4051 [200]: GET /site/rate?valueID=R01235&from=2020-04-06&to=2020-04-10
[Tue Apr 14 14:39:29 2020] 178.176.219.244:4051 Closing
[Tue Apr 14 14:39:29 2020] 178.176.219.244:36201 [200]: GET /favicon.ico
[Tue Apr 14 14:39:29 2020] 178.176.219.244:36201 Closing
